syn/Gamma_Filter/simulation/modelsim/msim_transcript
# Reading C:/intelFPGA_lite/18.1/modelsim_ase/tcl/vsim/pref.tcl
# do DE1_Gamma_Filter_run_msim_rtl_systemverilog.do
# if {[file exists rtl_work]} {
# 	vdel -lib rtl_work -all
# }
# vlib rtl_work
# vmap work rtl_work
# Model Technology ModelSim - Intel FPGA Edition vmap 10.5b Lib Mapping Utility 2016.10 Oct  5 2016
# vmap work rtl_work 
# Copying C:/intelFPGA_lite/18.1/modelsim_ase/win32aloem/../modelsim.ini to modelsim.ini
# Modifying modelsim.ini
# 
# vlog -vlog01compat -work work +incdir+C:/Users/coleh/Desktop/uma/ece688_gammaFilter/04_current/DE1_Gamma_Filter/v {C:/Users/coleh/Desktop/uma/ece688_gammaFilter/04_current/DE1_Gamma_Filter/v/Gamma_Correct_Case_Statements.v}
# Model Technology ModelSim - Intel FPGA Edition vlog 10.5b Compiler 2016.10 Oct  5 2016
# Start time: 17:39:41 on Jan 17,2021
# vlog -reportprogress 300 -vlog01compat -work work "+incdir+C:/Users/coleh/Desktop/uma/ece688_gammaFilter/04_current/DE1_Gamma_Filter/v" C:/Users/coleh/Desktop/uma/ece688_gammaFilter/04_current/DE1_Gamma_Filter/v/Gamma_Correct_Case_Statements.v 
# -- Compiling module Gamma_Correct_Case_Statements
# 
# Top level modules:
# 	Gamma_Correct_Case_Statements
# End time: 17:39:41 on Jan 17,2021, Elapsed time: 0:00:00
# Errors: 0, Warnings: 0
# 
vlog -reportprogress 300 -work work C:/Users/coleh/Desktop/uma/ece688_gammaFilter/04_current/bench/Gamma_Correct_TB.v
# Model Technology ModelSim - Intel FPGA Edition vlog 10.5b Compiler 2016.10 Oct  5 2016
# Start time: 17:39:51 on Jan 17,2021
# vlog -reportprogress 300 -work work C:/Users/coleh/Desktop/uma/ece688_gammaFilter/04_current/bench/Gamma_Correct_TB.v 
# -- Compiling module Gamma_Correct_TB
# 
# Top level modules:
# 	Gamma_Correct_TB
# End time: 17:39:51 on Jan 17,2021, Elapsed time: 0:00:00
# Errors: 0, Warnings: 0
vsim work.Gamma_Correct_TB
# vsim work.Gamma_Correct_TB 
# Start time: 17:40:00 on Jan 17,2021
# Loading work.Gamma_Correct_TB
# Loading work.Gamma_Correct_Case_Statements
run 16 us
# PASS: index:           0, actual output: 00000000, expected: 00000000
# PASS: index:           1, actual output: 00000000, expected: 00000011
# PASS: index:           1, actual output: 00000011, expected: 00000011
# PASS: index:           1, actual output: 00000011, expected: 00000011
# PASS: index:           1, actual output: 00000011, expected: 00000011
# PASS: index:           1, actual output: 00000011, expected: 00000011
# PASS: index:           2, actual output: 00000011, expected: 00000101
# PASS: index:           2, actual output: 00000101, expected: 00000101
# PASS: index:           2, actual output: 00000101, expected: 00000101
# PASS: index:           2, actual output: 00000101, expected: 00000101
# PASS: index:           2, actual output: 00000101, expected: 00000101
# PASS: index:           3, actual output: 00000101, expected: 00000111
# PASS: index:           3, actual output: 00000111, expected: 00000111
# PASS: index:           3, actual output: 00000111, expected: 00000111
# PASS: index:           3, actual output: 00000111, expected: 00000111
# PASS: index:           3, actual output: 00000111, expected: 00000111
# PASS: index:           4, actual output: 00000111, expected: 00001001
# PASS: index:           4, actual output: 00001001, expected: 00001001
# PASS: index:           4, actual output: 00001001, expected: 00001001
# PASS: index:           4, actual output: 00001001, expected: 00001001
# PASS: index:           4, actual output: 00001001, expected: 00001001
# PASS: index:           5, actual output: 00001001, expected: 00001010
# PASS: index:           5, actual output: 00001010, expected: 00001010
# PASS: index:           5, actual output: 00001010, expected: 00001010
# PASS: index:           5, actual output: 00001010, expected: 00001010
# PASS: index:           5, actual output: 00001010, expected: 00001010
# PASS: index:           6, actual output: 00001010, expected: 00001100
# PASS: index:           6, actual output: 00001100, expected: 00001100
# PASS: index:           6, actual output: 00001100, expected: 00001100
# PASS: index:           6, actual output: 00001100, expected: 00001100
# PASS: index:           6, actual output: 00001100, expected: 00001100
# PASS: index:           7, actual output: 00001100, expected: 00001110
# PASS: index:           7, actual output: 00001110, expected: 00001110
# PASS: index:           7, actual output: 00001110, expected: 00001110
# PASS: index:           7, actual output: 00001110, expected: 00001110
# PASS: index:           7, actual output: 00001110, expected: 00001110
# PASS: index:           8, actual output: 00001110, expected: 00001111
# PASS: index:           8, actual output: 00001111, expected: 00001111
# PASS: index:           8, actual output: 00001111, expected: 00001111
# PASS: index:           8, actual output: 00001111, expected: 00001111
# PASS: index:           8, actual output: 00001111, expected: 00001111
# PASS: index:           9, actual output: 00001111, expected: 00010001
# PASS: index:           9, actual output: 00010001, expected: 00010001
# PASS: index:           9, actual output: 00010001, expected: 00010001
# PASS: index:           9, actual output: 00010001, expected: 00010001
# PASS: index:           9, actual output: 00010001, expected: 00010001
# PASS: index:          10, actual output: 00010001, expected: 00010011
# PASS: index:          10, actual output: 00010011, expected: 00010011
# PASS: index:          10, actual output: 00010011, expected: 00010011
# PASS: index:          10, actual output: 00010011, expected: 00010011
# PASS: index:          10, actual output: 00010011, expected: 00010011
# PASS: index:          11, actual output: 00010011, expected: 00010100
# PASS: index:          11, actual output: 00010100, expected: 00010100
# PASS: index:          11, actual output: 00010100, expected: 00010100
# PASS: index:          11, actual output: 00010100, expected: 00010100
# PASS: index:          11, actual output: 00010100, expected: 00010100
# PASS: index:          12, actual output: 00010100, expected: 00010110
# PASS: index:          12, actual output: 00010110, expected: 00010110
# PASS: index:          12, actual output: 00010110, expected: 00010110
# PASS: index:          12, actual output: 00010110, expected: 00010110
# PASS: index:          12, actual output: 00010110, expected: 00010110
# PASS: index:          13, actual output: 00010110, expected: 00010111
# PASS: index:          13, actual output: 00010111, expected: 00010111
# PASS: index:          13, actual output: 00010111, expected: 00010111
# PASS: index:          13, actual output: 00010111, expected: 00010111
# PASS: index:          13, actual output: 00010111, expected: 00010111
# PASS: index:          14, actual output: 00010111, expected: 00011001
# PASS: index:          14, actual output: 00011001, expected: 00011001
# PASS: index:          14, actual output: 00011001, expected: 00011001
# PASS: index:          14, actual output: 00011001, expected: 00011001
# PASS: index:          14, actual output: 00011001, expected: 00011001
# PASS: index:          15, actual output: 00011001, expected: 00011010
# PASS: index:          15, actual output: 00011010, expected: 00011010
# PASS: index:          15, actual output: 00011010, expected: 00011010
# PASS: index:          15, actual output: 00011010, expected: 00011010
# PASS: index:          15, actual output: 00011010, expected: 00011010
# PASS: index:          16, actual output: 00011010, expected: 00011011
# PASS: index:          16, actual output: 00011011, expected: 00011011
# PASS: index:          16, actual output: 00011011, expected: 00011011
# PASS: index:          16, actual output: 00011011, expected: 00011011
# PASS: index:          16, actual output: 00011011, expected: 00011011
# PASS: index:          17, actual output: 00011011, expected: 00011101
# PASS: index:          17, actual output: 00011101, expected: 00011101
# PASS: index:          17, actual output: 00011101, expected: 00011101
# PASS: index:          17, actual output: 00011101, expected: 00011101
# PASS: index:          17, actual output: 00011101, expected: 00011101
# PASS: index:          18, actual output: 00011101, expected: 00011110
# PASS: index:          18, actual output: 00011110, expected: 00011110
# PASS: index:          18, actual output: 00011110, expected: 00011110
# PASS: index:          18, actual output: 00011110, expected: 00011110
# PASS: index:          18, actual output: 00011110, expected: 00011110
# PASS: index:          19, actual output: 00011110, expected: 00011111
# PASS: index:          19, actual output: 00011111, expected: 00011111
# PASS: index:          19, actual output: 00011111, expected: 00011111
# PASS: index:          19, actual output: 00011111, expected: 00011111
# PASS: index:          19, actual output: 00011111, expected: 00011111
# PASS: index:          20, actual output: 00011111, expected: 00100001
# PASS: index:          20, actual output: 00100001, expected: 00100001
# PASS: index:          20, actual output: 00100001, expected: 00100001
# PASS: index:          20, actual output: 00100001, expected: 00100001
# PASS: index:          20, actual output: 00100001, expected: 00100001
# PASS: index:          21, actual output: 00100001, expected: 00100010
# PASS: index:          21, actual output: 00100010, expected: 00100010
# PASS: index:          21, actual output: 00100010, expected: 00100010
# PASS: index:          21, actual output: 00100010, expected: 00100010
# PASS: index:          21, actual output: 00100010, expected: 00100010
# PASS: index:          22, actual output: 00100010, expected: 00100011
# PASS: index:          22, actual output: 00100011, expected: 00100011
# PASS: index:          22, actual output: 00100011, expected: 00100011
# PASS: index:          22, actual output: 00100011, expected: 00100011
# PASS: index:          22, actual output: 00100011, expected: 00100011
# PASS: index:          23, actual output: 00100011, expected: 00100101
# PASS: index:          23, actual output: 00100101, expected: 00100101
# PASS: index:          23, actual output: 00100101, expected: 00100101
# PASS: index:          23, actual output: 00100101, expected: 00100101
# PASS: index:          23, actual output: 00100101, expected: 00100101
# PASS: index:          24, actual output: 00100101, expected: 00100110
# PASS: index:          24, actual output: 00100110, expected: 00100110
# PASS: index:          24, actual output: 00100110, expected: 00100110
# PASS: index:          24, actual output: 00100110, expected: 00100110
# PASS: index:          24, actual output: 00100110, expected: 00100110
# PASS: index:          25, actual output: 00100110, expected: 00100111
# PASS: index:          25, actual output: 00100111, expected: 00100111
# PASS: index:          25, actual output: 00100111, expected: 00100111
# PASS: index:          25, actual output: 00100111, expected: 00100111
# PASS: index:          25, actual output: 00100111, expected: 00100111
# PASS: index:          26, actual output: 00100111, expected: 00101001
# PASS: index:          26, actual output: 00101001, expected: 00101001
# PASS: index:          26, actual output: 00101001, expected: 00101001
# PASS: index:          26, actual output: 00101001, expected: 00101001
# PASS: index:          26, actual output: 00101001, expected: 00101001
# PASS: index:          27, actual output: 00101001, expected: 00101010
# PASS: index:          27, actual output: 00101010, expected: 00101010
# PASS: index:          27, actual output: 00101010, expected: 00101010
# PASS: index:          27, actual output: 00101010, expected: 00101010
# PASS: index:          27, actual output: 00101010, expected: 00101010
# PASS: index:          28, actual output: 00101010, expected: 00101011
# PASS: index:          28, actual output: 00101011, expected: 00101011
# PASS: index:          28, actual output: 00101011, expected: 00101011
# PASS: index:          28, actual output: 00101011, expected: 00101011
# PASS: index:          28, actual output: 00101011, expected: 00101011
# PASS: index:          29, actual output: 00101011, expected: 00101100
# PASS: index:          29, actual output: 00101100, expected: 00101100
# PASS: index:          29, actual output: 00101100, expected: 00101100
# PASS: index:          29, actual output: 00101100, expected: 00101100
# PASS: index:          29, actual output: 00101100, expected: 00101100
# PASS: index:          30, actual output: 00101100, expected: 00101110
# PASS: index:          30, actual output: 00101110, expected: 00101110
# PASS: index:          30, actual output: 00101110, expected: 00101110
# PASS: index:          30, actual output: 00101110, expected: 00101110
# PASS: index:          30, actual output: 00101110, expected: 00101110
# PASS: index:          31, actual output: 00101110, expected: 00101111
# PASS: index:          31, actual output: 00101111, expected: 00101111
# PASS: index:          31, actual output: 00101111, expected: 00101111
# PASS: index:          31, actual output: 00101111, expected: 00101111
# PASS: index:          31, actual output: 00101111, expected: 00101111
# PASS: index:          32, actual output: 00101111, expected: 00110000
# PASS: index:          32, actual output: 00110000, expected: 00110000
# PASS: index:          32, actual output: 00110000, expected: 00110000
# PASS: index:          32, actual output: 00110000, expected: 00110000
# PASS: index:          32, actual output: 00110000, expected: 00110000
# PASS: index:          33, actual output: 00110000, expected: 00110001
# PASS: index:          33, actual output: 00110001, expected: 00110001
# PASS: index:          33, actual output: 00110001, expected: 00110001
# PASS: index:          33, actual output: 00110001, expected: 00110001
# PASS: index:          33, actual output: 00110001, expected: 00110001
# PASS: index:          34, actual output: 00110001, expected: 00110010
# PASS: index:          34, actual output: 00110010, expected: 00110010
# PASS: index:          34, actual output: 00110010, expected: 00110010
# PASS: index:          34, actual output: 00110010, expected: 00110010
# PASS: index:          34, actual output: 00110010, expected: 00110010
# PASS: index:          35, actual output: 00110010, expected: 00110100
# PASS: index:          35, actual output: 00110100, expected: 00110100
# PASS: index:          35, actual output: 00110100, expected: 00110100
# PASS: index:          35, actual output: 00110100, expected: 00110100
# PASS: index:          35, actual output: 00110100, expected: 00110100
# PASS: index:          36, actual output: 00110100, expected: 00110101
# PASS: index:          36, actual output: 00110101, expected: 00110101
# PASS: index:          36, actual output: 00110101, expected: 00110101
# PASS: index:          36, actual output: 00110101, expected: 00110101
# PASS: index:          36, actual output: 00110101, expected: 00110101
# PASS: index:          37, actual output: 00110101, expected: 00110110
# PASS: index:          37, actual output: 00110110, expected: 00110110
# PASS: index:          37, actual output: 00110110, expected: 00110110
# PASS: index:          37, actual output: 00110110, expected: 00110110
# PASS: index:          37, actual output: 00110110, expected: 00110110
# PASS: index:          38, actual output: 00110110, expected: 00110111
# PASS: index:          38, actual output: 00110111, expected: 00110111
# PASS: index:          38, actual output: 00110111, expected: 00110111
# PASS: index:          38, actual output: 00110111, expected: 00110111
# PASS: index:          38, actual output: 00110111, expected: 00110111
# PASS: index:          39, actual output: 00110111, expected: 00111000
# PASS: index:          39, actual output: 00111000, expected: 00111000
# PASS: index:          39, actual output: 00111000, expected: 00111000
# PASS: index:          39, actual output: 00111000, expected: 00111000
# PASS: index:          39, actual output: 00111000, expected: 00111000
# PASS: index:          40, actual output: 00111000, expected: 00111001
# PASS: index:          40, actual output: 00111001, expected: 00111001
# PASS: index:          40, actual output: 00111001, expected: 00111001
# PASS: index:          40, actual output: 00111001, expected: 00111001
# PASS: index:          40, actual output: 00111001, expected: 00111001
# PASS: index:          41, actual output: 00111001, expected: 00111011
# PASS: index:          41, actual output: 00111011, expected: 00111011
# PASS: index:          41, actual output: 00111011, expected: 00111011
# PASS: index:          41, actual output: 00111011, expected: 00111011
# PASS: index:          41, actual output: 00111011, expected: 00111011
# PASS: index:          42, actual output: 00111011, expected: 00111100
# PASS: index:          42, actual output: 00111100, expected: 00111100
# PASS: index:          42, actual output: 00111100, expected: 00111100
# PASS: index:          42, actual output: 00111100, expected: 00111100
# PASS: index:          42, actual output: 00111100, expected: 00111100
# PASS: index:          43, actual output: 00111100, expected: 00111101
# PASS: index:          43, actual output: 00111101, expected: 00111101
# PASS: index:          43, actual output: 00111101, expected: 00111101
# PASS: index:          43, actual output: 00111101, expected: 00111101
# PASS: index:          43, actual output: 00111101, expected: 00111101
# PASS: index:          44, actual output: 00111101, expected: 00111110
# PASS: index:          44, actual output: 00111110, expected: 00111110
# PASS: index:          44, actual output: 00111110, expected: 00111110
# PASS: index:          44, actual output: 00111110, expected: 00111110
# PASS: index:          44, actual output: 00111110, expected: 00111110
# PASS: index:          45, actual output: 00111110, expected: 00111111
# PASS: index:          45, actual output: 00111111, expected: 00111111
# PASS: index:          45, actual output: 00111111, expected: 00111111
# PASS: index:          45, actual output: 00111111, expected: 00111111
# PASS: index:          45, actual output: 00111111, expected: 00111111
# PASS: index:          46, actual output: 00111111, expected: 01000000
# PASS: index:          46, actual output: 01000000, expected: 01000000
# PASS: index:          46, actual output: 01000000, expected: 01000000
# PASS: index:          46, actual output: 01000000, expected: 01000000
# PASS: index:          46, actual output: 01000000, expected: 01000000
# PASS: index:          47, actual output: 01000000, expected: 01000001
# PASS: index:          47, actual output: 01000001, expected: 01000001
# PASS: index:          47, actual output: 01000001, expected: 01000001
# PASS: index:          47, actual output: 01000001, expected: 01000001
# PASS: index:          47, actual output: 01000001, expected: 01000001
# PASS: index:          48, actual output: 01000001, expected: 01000011
# PASS: index:          48, actual output: 01000011, expected: 01000011
# PASS: index:          48, actual output: 01000011, expected: 01000011
# PASS: index:          48, actual output: 01000011, expected: 01000011
# PASS: index:          48, actual output: 01000011, expected: 01000011
# PASS: index:          49, actual output: 01000011, expected: 01000100
# PASS: index:          49, actual output: 01000100, expected: 01000100
# PASS: index:          49, actual output: 01000100, expected: 01000100
# PASS: index:          49, actual output: 01000100, expected: 01000100
# PASS: index:          49, actual output: 01000100, expected: 01000100
# PASS: index:          50, actual output: 01000100, expected: 01000101
# PASS: index:          50, actual output: 01000101, expected: 01000101
# PASS: index:          50, actual output: 01000101, expected: 01000101
# PASS: index:          50, actual output: 01000101, expected: 01000101
# PASS: index:          50, actual output: 01000101, expected: 01000101
# PASS: index:          51, actual output: 01000101, expected: 01000110
# PASS: index:          51, actual output: 01000110, expected: 01000110
# PASS: index:          51, actual output: 01000110, expected: 01000110
# PASS: index:          51, actual output: 01000110, expected: 01000110
# PASS: index:          51, actual output: 01000110, expected: 01000110
# PASS: index:          52, actual output: 01000110, expected: 01000111
# PASS: index:          52, actual output: 01000111, expected: 01000111
# PASS: index:          52, actual output: 01000111, expected: 01000111
# PASS: index:          52, actual output: 01000111, expected: 01000111
# PASS: index:          52, actual output: 01000111, expected: 01000111
# PASS: index:          53, actual output: 01000111, expected: 01001000
# PASS: index:          53, actual output: 01001000, expected: 01001000
# PASS: index:          53, actual output: 01001000, expected: 01001000
# PASS: index:          53, actual output: 01001000, expected: 01001000
# PASS: index:          53, actual output: 01001000, expected: 01001000
# PASS: index:          54, actual output: 01001000, expected: 01001001
# PASS: index:          54, actual output: 01001001, expected: 01001001
# PASS: index:          54, actual output: 01001001, expected: 01001001
# PASS: index:          54, actual output: 01001001, expected: 01001001
# PASS: index:          54, actual output: 01001001, expected: 01001001
# PASS: index:          55, actual output: 01001001, expected: 01001010
# PASS: index:          55, actual output: 01001010, expected: 01001010
# PASS: index:          55, actual output: 01001010, expected: 01001010
# PASS: index:          55, actual output: 01001010, expected: 01001010
# PASS: index:          55, actual output: 01001010, expected: 01001010
# PASS: index:          56, actual output: 01001010, expected: 01001011
# PASS: index:          56, actual output: 01001011, expected: 01001011
# PASS: index:          56, actual output: 01001011, expected: 01001011
# PASS: index:          56, actual output: 01001011, expected: 01001011
# PASS: index:          56, actual output: 01001011, expected: 01001011
# PASS: index:          57, actual output: 01001011, expected: 01001100
# PASS: index:          57, actual output: 01001100, expected: 01001100
# PASS: index:          57, actual output: 01001100, expected: 01001100
# PASS: index:          57, actual output: 01001100, expected: 01001100
# PASS: index:          57, actual output: 01001100, expected: 01001100
# PASS: index:          58, actual output: 01001100, expected: 01001101
# PASS: index:          58, actual output: 01001101, expected: 01001101
# PASS: index:          58, actual output: 01001101, expected: 01001101
# PASS: index:          58, actual output: 01001101, expected: 01001101
# PASS: index:          58, actual output: 01001101, expected: 01001101
# PASS: index:          59, actual output: 01001101, expected: 01001111
# PASS: index:          59, actual output: 01001111, expected: 01001111
# PASS: index:          59, actual output: 01001111, expected: 01001111
# PASS: index:          59, actual output: 01001111, expected: 01001111
# PASS: index:          59, actual output: 01001111, expected: 01001111
# PASS: index:          60, actual output: 01001111, expected: 01010000
# PASS: index:          60, actual output: 01010000, expected: 01010000
# PASS: index:          60, actual output: 01010000, expected: 01010000
# PASS: index:          60, actual output: 01010000, expected: 01010000
# PASS: index:          60, actual output: 01010000, expected: 01010000
# PASS: index:          61, actual output: 01010000, expected: 01010001
# PASS: index:          61, actual output: 01010001, expected: 01010001
# PASS: index:          61, actual output: 01010001, expected: 01010001
# PASS: index:          61, actual output: 01010001, expected: 01010001
# PASS: index:          61, actual output: 01010001, expected: 01010001
# PASS: index:          62, actual output: 01010001, expected: 01010010
# PASS: index:          62, actual output: 01010010, expected: 01010010
# PASS: index:          62, actual output: 01010010, expected: 01010010
# PASS: index:          62, actual output: 01010010, expected: 01010010
# PASS: index:          62, actual output: 01010010, expected: 01010010
# PASS: index:          63, actual output: 01010010, expected: 01010011
# PASS: index:          63, actual output: 01010011, expected: 01010011
# PASS: index:          63, actual output: 01010011, expected: 01010011
# PASS: index:          63, actual output: 01010011, expected: 01010011
# PASS: index:          63, actual output: 01010011, expected: 01010011
# PASS: index:          64, actual output: 01010011, expected: 01010100
# PASS: index:          64, actual output: 01010100, expected: 01010100
# PASS: index:          64, actual output: 01010100, expected: 01010100
# PASS: index:          64, actual output: 01010100, expected: 01010100
# PASS: index:          64, actual output: 01010100, expected: 01010100
# PASS: index:          65, actual output: 01010100, expected: 01010101
# PASS: index:          65, actual output: 01010101, expected: 01010101
# PASS: index:          65, actual output: 01010101, expected: 01010101
# PASS: index:          65, actual output: 01010101, expected: 01010101
# PASS: index:          65, actual output: 01010101, expected: 01010101
# PASS: index:          66, actual output: 01010101, expected: 01010110
# PASS: index:          66, actual output: 01010110, expected: 01010110
# PASS: index:          66, actual output: 01010110, expected: 01010110
# PASS: index:          66, actual output: 01010110, expected: 01010110
# PASS: index:          66, actual output: 01010110, expected: 01010110
# PASS: index:          67, actual output: 01010110, expected: 01010111
# PASS: index:          67, actual output: 01010111, expected: 01010111
# PASS: index:          67, actual output: 01010111, expected: 01010111
# PASS: index:          67, actual output: 01010111, expected: 01010111
# PASS: index:          67, actual output: 01010111, expected: 01010111
# PASS: index:          68, actual output: 01010111, expected: 01011000
# PASS: index:          68, actual output: 01011000, expected: 01011000
# PASS: index:          68, actual output: 01011000, expected: 01011000
# PASS: index:          68, actual output: 01011000, expected: 01011000
# PASS: index:          68, actual output: 01011000, expected: 01011000
# PASS: index:          69, actual output: 01011000, expected: 01011001
# PASS: index:          69, actual output: 01011001, expected: 01011001
# PASS: index:          69, actual output: 01011001, expected: 01011001
# PASS: index:          69, actual output: 01011001, expected: 01011001
# PASS: index:          69, actual output: 01011001, expected: 01011001
# PASS: index:          70, actual output: 01011001, expected: 01011010
# PASS: index:          70, actual output: 01011010, expected: 01011010
# PASS: index:          70, actual output: 01011010, expected: 01011010
# PASS: index:          70, actual output: 01011010, expected: 01011010
# PASS: index:          70, actual output: 01011010, expected: 01011010
# PASS: index:          71, actual output: 01011010, expected: 01011011
# PASS: index:          71, actual output: 01011011, expected: 01011011
# PASS: index:          71, actual output: 01011011, expected: 01011011
# PASS: index:          71, actual output: 01011011, expected: 01011011
# PASS: index:          71, actual output: 01011011, expected: 01011011
# PASS: index:          72, actual output: 01011011, expected: 01011100
# PASS: index:          72, actual output: 01011100, expected: 01011100
# PASS: index:          72, actual output: 01011100, expected: 01011100
# PASS: index:          72, actual output: 01011100, expected: 01011100
# PASS: index:          72, actual output: 01011100, expected: 01011100
# PASS: index:          73, actual output: 01011100, expected: 01011101
# PASS: index:          73, actual output: 01011101, expected: 01011101
# PASS: index:          73, actual output: 01011101, expected: 01011101
# PASS: index:          73, actual output: 01011101, expected: 01011101
# PASS: index:          73, actual output: 01011101, expected: 01011101
# PASS: index:          74, actual output: 01011101, expected: 01011110
# PASS: index:          74, actual output: 01011110, expected: 01011110
# PASS: index:          74, actual output: 01011110, expected: 01011110
# PASS: index:          74, actual output: 01011110, expected: 01011110
# PASS: index:          74, actual output: 01011110, expected: 01011110
# PASS: index:          75, actual output: 01011110, expected: 01011111
# PASS: index:          75, actual output: 01011111, expected: 01011111
# PASS: index:          75, actual output: 01011111, expected: 01011111
# PASS: index:          75, actual output: 01011111, expected: 01011111
# PASS: index:          75, actual output: 01011111, expected: 01011111
# PASS: index:          76, actual output: 01011111, expected: 01100000
# PASS: index:          76, actual output: 01100000, expected: 01100000
# PASS: index:          76, actual output: 01100000, expected: 01100000
# PASS: index:          76, actual output: 01100000, expected: 01100000
# PASS: index:          76, actual output: 01100000, expected: 01100000
# PASS: index:          77, actual output: 01100000, expected: 01100001
# PASS: index:          77, actual output: 01100001, expected: 01100001
# PASS: index:          77, actual output: 01100001, expected: 01100001
# PASS: index:          77, actual output: 01100001, expected: 01100001
# PASS: index:          77, actual output: 01100001, expected: 01100001
# PASS: index:          78, actual output: 01100001, expected: 01100010
# PASS: index:          78, actual output: 01100010, expected: 01100010
# PASS: index:          78, actual output: 01100010, expected: 01100010
# PASS: index:          78, actual output: 01100010, expected: 01100010
# PASS: index:          78, actual output: 01100010, expected: 01100010
# PASS: index:          79, actual output: 01100010, expected: 01100011
# PASS: index:          79, actual output: 01100011, expected: 01100011
# PASS: index:          79, actual output: 01100011, expected: 01100011
# PASS: index:          79, actual output: 01100011, expected: 01100011
# PASS: index:          79, actual output: 01100011, expected: 01100011
# PASS: index:          80, actual output: 01100011, expected: 01100100
# PASS: index:          80, actual output: 01100100, expected: 01100100
# PASS: index:          80, actual output: 01100100, expected: 01100100
# PASS: index:          80, actual output: 01100100, expected: 01100100
# PASS: index:          80, actual output: 01100100, expected: 01100100
# PASS: index:          81, actual output: 01100100, expected: 01100101
# PASS: index:          81, actual output: 01100101, expected: 01100101
# PASS: index:          81, actual output: 01100101, expected: 01100101
# PASS: index:          81, actual output: 01100101, expected: 01100101
# PASS: index:          81, actual output: 01100101, expected: 01100101
# PASS: index:          82, actual output: 01100101, expected: 01100110
# PASS: index:          82, actual output: 01100110, expected: 01100110
# PASS: index:          82, actual output: 01100110, expected: 01100110
# PASS: index:          82, actual output: 01100110, expected: 01100110
# PASS: index:          82, actual output: 01100110, expected: 01100110
# PASS: index:          83, actual output: 01100110, expected: 01100111
# PASS: index:          83, actual output: 01100111, expected: 01100111
# PASS: index:          83, actual output: 01100111, expected: 01100111
# PASS: index:          83, actual output: 01100111, expected: 01100111
# PASS: index:          83, actual output: 01100111, expected: 01100111
# PASS: index:          84, actual output: 01100111, expected: 01101000
# PASS: index:          84, actual output: 01101000, expected: 01101000
# PASS: index:          84, actual output: 01101000, expected: 01101000
# PASS: index:          84, actual output: 01101000, expected: 01101000
# PASS: index:          84, actual output: 01101000, expected: 01101000
# PASS: index:          85, actual output: 01101000, expected: 01101001
# PASS: index:          85, actual output: 01101001, expected: 01101001
# PASS: index:          85, actual output: 01101001, expected: 01101001
# PASS: index:          85, actual output: 01101001, expected: 01101001
# PASS: index:          85, actual output: 01101001, expected: 01101001
# PASS: index:          86, actual output: 01101001, expected: 01101010
# PASS: index:          86, actual output: 01101010, expected: 01101010
# PASS: index:          86, actual output: 01101010, expected: 01101010
# PASS: index:          86, actual output: 01101010, expected: 01101010
# PASS: index:          86, actual output: 01101010, expected: 01101010
# PASS: index:          87, actual output: 01101010, expected: 01101011
# PASS: index:          87, actual output: 01101011, expected: 01101011
# PASS: index:          87, actual output: 01101011, expected: 01101011
# PASS: index:          87, actual output: 01101011, expected: 01101011
# PASS: index:          87, actual output: 01101011, expected: 01101011
# PASS: index:          88, actual output: 01101011, expected: 01101100
# PASS: index:          88, actual output: 01101100, expected: 01101100
# PASS: index:          88, actual output: 01101100, expected: 01101100
# PASS: index:          88, actual output: 01101100, expected: 01101100
# PASS: index:          88, actual output: 01101100, expected: 01101100
# PASS: index:          89, actual output: 01101100, expected: 01101101
# PASS: index:          89, actual output: 01101101, expected: 01101101
# PASS: index:          89, actual output: 01101101, expected: 01101101
# PASS: index:          89, actual output: 01101101, expected: 01101101
# PASS: index:          89, actual output: 01101101, expected: 01101101
# PASS: index:          90, actual output: 01101101, expected: 01101110
# PASS: index:          90, actual output: 01101110, expected: 01101110
# PASS: index:          90, actual output: 01101110, expected: 01101110
# PASS: index:          90, actual output: 01101110, expected: 01101110
# PASS: index:          90, actual output: 01101110, expected: 01101110
# PASS: index:          91, actual output: 01101110, expected: 01101111
# PASS: index:          91, actual output: 01101111, expected: 01101111
# PASS: index:          91, actual output: 01101111, expected: 01101111
# PASS: index:          91, actual output: 01101111, expected: 01101111
# PASS: index:          91, actual output: 01101111, expected: 01101111
# PASS: index:          92, actual output: 01101111, expected: 01110000
# PASS: index:          92, actual output: 01110000, expected: 01110000
# PASS: index:          92, actual output: 01110000, expected: 01110000
# PASS: index:          92, actual output: 01110000, expected: 01110000
# PASS: index:          92, actual output: 01110000, expected: 01110000
# PASS: index:          93, actual output: 01110000, expected: 01110001
# PASS: index:          93, actual output: 01110001, expected: 01110001
# PASS: index:          93, actual output: 01110001, expected: 01110001
# PASS: index:          93, actual output: 01110001, expected: 01110001
# PASS: index:          93, actual output: 01110001, expected: 01110001
# PASS: index:          94, actual output: 01110001, expected: 01110010
# PASS: index:          94, actual output: 01110010, expected: 01110010
# PASS: index:          94, actual output: 01110010, expected: 01110010
# PASS: index:          94, actual output: 01110010, expected: 01110010
# PASS: index:          94, actual output: 01110010, expected: 01110010
# PASS: index:          95, actual output: 01110010, expected: 01110011
# PASS: index:          95, actual output: 01110011, expected: 01110011
# PASS: index:          95, actual output: 01110011, expected: 01110011
# PASS: index:          95, actual output: 01110011, expected: 01110011
# PASS: index:          95, actual output: 01110011, expected: 01110011
# PASS: index:          96, actual output: 01110011, expected: 01110100
# PASS: index:          96, actual output: 01110100, expected: 01110100
# PASS: index:          96, actual output: 01110100, expected: 01110100
# PASS: index:          96, actual output: 01110100, expected: 01110100
# PASS: index:          96, actual output: 01110100, expected: 01110100
# PASS: index:          97, actual output: 01110100, expected: 01110101
# PASS: index:          97, actual output: 01110101, expected: 01110101
# PASS: index:          97, actual output: 01110101, expected: 01110101
# PASS: index:          97, actual output: 01110101, expected: 01110101
# PASS: index:          97, actual output: 01110101, expected: 01110101
# PASS: index:          98, actual output: 01110101, expected: 01110110
# PASS: index:          98, actual output: 01110110, expected: 01110110
# PASS: index:          98, actual output: 01110110, expected: 01110110
# PASS: index:          98, actual output: 01110110, expected: 01110110
# PASS: index:          98, actual output: 01110110, expected: 01110110
# PASS: index:          99, actual output: 01110110, expected: 01110111
# PASS: index:          99, actual output: 01110111, expected: 01110111
# PASS: index:          99, actual output: 01110111, expected: 01110111
# PASS: index:          99, actual output: 01110111, expected: 01110111
# PASS: index:          99, actual output: 01110111, expected: 01110111
# PASS: index:         100, actual output: 01110111, expected: 01111000
# PASS: index:         100, actual output: 01111000, expected: 01111000
# PASS: index:         100, actual output: 01111000, expected: 01111000
# PASS: index:         100, actual output: 01111000, expected: 01111000
# PASS: index:         100, actual output: 01111000, expected: 01111000
# PASS: index:         101, actual output: 01111000, expected: 01111001
# PASS: index:         101, actual output: 01111001, expected: 01111001
# PASS: index:         101, actual output: 01111001, expected: 01111001
# PASS: index:         101, actual output: 01111001, expected: 01111001
# PASS: index:         101, actual output: 01111001, expected: 01111001
# PASS: index:         102, actual output: 01111001, expected: 01111010
# PASS: index:         102, actual output: 01111010, expected: 01111010
# PASS: index:         102, actual output: 01111010, expected: 01111010
# PASS: index:         102, actual output: 01111010, expected: 01111010
# PASS: index:         102, actual output: 01111010, expected: 01111010
# PASS: index:         103, actual output: 01111010, expected: 01111011
