syn/Gamma_Filter/simulation/modelsim/msim_transcript
# Reading C:/intelFPGA_lite/18.1/modelsim_ase/tcl/vsim/pref.tcl
# do DE1_Gamma_Filter_run_msim_rtl_systemverilog.do
# if {[file exists rtl_work]} {
# 	vdel -lib rtl_work -all
# }
# vlib rtl_work
# vmap work rtl_work
# Model Technology ModelSim - Intel FPGA Edition vmap 10.5b Lib Mapping Utility 2016.10 Oct  5 2016
# vmap work rtl_work 
# Copying C:/intelFPGA_lite/18.1/modelsim_ase/win32aloem/../modelsim.ini to modelsim.ini
# Modifying modelsim.ini
# 
# vlog -vlog01compat -work work +incdir+C:/Users/coleh/Desktop/uma/ece688_gammaFilter/Gamma_Filter_DE1_SoC/syn/Gamma_Filter/v {C:/Users/coleh/Desktop/uma/ece688_gammaFilter/Gamma_Filter_DE1_SoC/syn/Gamma_Filter/v/Gamma_Correct_Sim.v}
# Model Technology ModelSim - Intel FPGA Edition vlog 10.5b Compiler 2016.10 Oct  5 2016
# Start time: 15:52:59 on Jan 23,2021
# vlog -reportprogress 300 -vlog01compat -work work "+incdir+C:/Users/coleh/Desktop/uma/ece688_gammaFilter/Gamma_Filter_DE1_SoC/syn/Gamma_Filter/v" C:/Users/coleh/Desktop/uma/ece688_gammaFilter/Gamma_Filter_DE1_SoC/syn/Gamma_Filter/v/Gamma_Correct_Sim.v 
# -- Compiling module Gamma_Correct_Sim
# 
# Top level modules:
# 	Gamma_Correct_Sim
# End time: 15:52:59 on Jan 23,2021, Elapsed time: 0:00:00
# Errors: 0, Warnings: 0
# 
vlog -reportprogress 300 -work work C:/Users/coleh/Desktop/uma/ece688_gammaFilter/Gamma_Filter_DE1_SoC/bench/Gamma_Correct_TB.v
# Model Technology ModelSim - Intel FPGA Edition vlog 10.5b Compiler 2016.10 Oct  5 2016
# Start time: 15:53:11 on Jan 23,2021
# vlog -reportprogress 300 -work work C:/Users/coleh/Desktop/uma/ece688_gammaFilter/Gamma_Filter_DE1_SoC/bench/Gamma_Correct_TB.v 
# -- Compiling module Gamma_Correct_TB
# 
# Top level modules:
# 	Gamma_Correct_TB
# End time: 15:53:11 on Jan 23,2021, Elapsed time: 0:00:00
# Errors: 0, Warnings: 0
vsim work.Gamma_Correct_TB
# vsim work.Gamma_Correct_TB 
# Start time: 15:53:18 on Jan 23,2021
# Loading work.Gamma_Correct_TB
# Loading work.Gamma_Correct_Sim
run 16 us
# PASS: index:           0, actual output: 0x00, expected: 0x00
# PASS: index:           1, actual output: 0x00, expected: 0x00
# PASS: index:           1, actual output: 0x00, expected: 0x00
# PASS: index:           1, actual output: 0x00, expected: 0x00
# PASS: index:           1, actual output: 0x00, expected: 0x00
# PASS: index:           1, actual output: 0x00, expected: 0x00
# PASS: index:           2, actual output: 0x00, expected: 0x00
# PASS: index:           2, actual output: 0x00, expected: 0x00
# PASS: index:           2, actual output: 0x00, expected: 0x00
# PASS: index:           2, actual output: 0x00, expected: 0x00
# PASS: index:           2, actual output: 0x00, expected: 0x00
# PASS: index:           3, actual output: 0x00, expected: 0x00
# PASS: index:           3, actual output: 0x00, expected: 0x00
# PASS: index:           3, actual output: 0x00, expected: 0x00
# PASS: index:           3, actual output: 0x00, expected: 0x00
# PASS: index:           3, actual output: 0x00, expected: 0x00
# PASS: index:           4, actual output: 0x00, expected: 0x00
# PASS: index:           4, actual output: 0x00, expected: 0x00
# PASS: index:           4, actual output: 0x00, expected: 0x00
# PASS: index:           4, actual output: 0x00, expected: 0x00
# PASS: index:           4, actual output: 0x00, expected: 0x00
# PASS: index:           5, actual output: 0x00, expected: 0x00
# PASS: index:           5, actual output: 0x00, expected: 0x00
# PASS: index:           5, actual output: 0x00, expected: 0x00
# PASS: index:           5, actual output: 0x00, expected: 0x00
# PASS: index:           5, actual output: 0x00, expected: 0x00
# PASS: index:           6, actual output: 0x00, expected: 0x00
# PASS: index:           6, actual output: 0x00, expected: 0x00
# PASS: index:           6, actual output: 0x00, expected: 0x00
# PASS: index:           6, actual output: 0x00, expected: 0x00
# PASS: index:           6, actual output: 0x00, expected: 0x00
# PASS: index:           7, actual output: 0x00, expected: 0x01
# PASS: index:           7, actual output: 0x01, expected: 0x01
# PASS: index:           7, actual output: 0x01, expected: 0x01
# PASS: index:           7, actual output: 0x01, expected: 0x01
# PASS: index:           7, actual output: 0x01, expected: 0x01
# PASS: index:           8, actual output: 0x01, expected: 0x01
# PASS: index:           8, actual output: 0x01, expected: 0x01
# PASS: index:           8, actual output: 0x01, expected: 0x01
# PASS: index:           8, actual output: 0x01, expected: 0x01
# PASS: index:           8, actual output: 0x01, expected: 0x01
# PASS: index:           9, actual output: 0x01, expected: 0x01
# PASS: index:           9, actual output: 0x01, expected: 0x01
# PASS: index:           9, actual output: 0x01, expected: 0x01
# PASS: index:           9, actual output: 0x01, expected: 0x01
# PASS: index:           9, actual output: 0x01, expected: 0x01
# PASS: index:          10, actual output: 0x01, expected: 0x01
# PASS: index:          10, actual output: 0x01, expected: 0x01
# PASS: index:          10, actual output: 0x01, expected: 0x01
# PASS: index:          10, actual output: 0x01, expected: 0x01
# PASS: index:          10, actual output: 0x01, expected: 0x01
# PASS: index:          11, actual output: 0x01, expected: 0x02
# PASS: index:          11, actual output: 0x02, expected: 0x02
# PASS: index:          11, actual output: 0x02, expected: 0x02
# PASS: index:          11, actual output: 0x02, expected: 0x02
# PASS: index:          11, actual output: 0x02, expected: 0x02
# PASS: index:          12, actual output: 0x02, expected: 0x02
# PASS: index:          12, actual output: 0x02, expected: 0x02
# PASS: index:          12, actual output: 0x02, expected: 0x02
# PASS: index:          12, actual output: 0x02, expected: 0x02
# PASS: index:          12, actual output: 0x02, expected: 0x02
# PASS: index:          13, actual output: 0x02, expected: 0x02
# PASS: index:          13, actual output: 0x02, expected: 0x02
# PASS: index:          13, actual output: 0x02, expected: 0x02
# PASS: index:          13, actual output: 0x02, expected: 0x02
# PASS: index:          13, actual output: 0x02, expected: 0x02
# PASS: index:          14, actual output: 0x02, expected: 0x03
# PASS: index:          14, actual output: 0x03, expected: 0x03
# PASS: index:          14, actual output: 0x03, expected: 0x03
# PASS: index:          14, actual output: 0x03, expected: 0x03
# PASS: index:          14, actual output: 0x03, expected: 0x03
# PASS: index:          15, actual output: 0x03, expected: 0x03
# PASS: index:          15, actual output: 0x03, expected: 0x03
# PASS: index:          15, actual output: 0x03, expected: 0x03
# PASS: index:          15, actual output: 0x03, expected: 0x03
# PASS: index:          15, actual output: 0x03, expected: 0x03
# PASS: index:          16, actual output: 0x03, expected: 0x04
# PASS: index:          16, actual output: 0x04, expected: 0x04
# PASS: index:          16, actual output: 0x04, expected: 0x04
# PASS: index:          16, actual output: 0x04, expected: 0x04
# PASS: index:          16, actual output: 0x04, expected: 0x04
# PASS: index:          17, actual output: 0x04, expected: 0x04
# PASS: index:          17, actual output: 0x04, expected: 0x04
# PASS: index:          17, actual output: 0x04, expected: 0x04
# PASS: index:          17, actual output: 0x04, expected: 0x04
# PASS: index:          17, actual output: 0x04, expected: 0x04
# PASS: index:          18, actual output: 0x04, expected: 0x04
# PASS: index:          18, actual output: 0x04, expected: 0x04
# PASS: index:          18, actual output: 0x04, expected: 0x04
# PASS: index:          18, actual output: 0x04, expected: 0x04
# PASS: index:          18, actual output: 0x04, expected: 0x04
# PASS: index:          19, actual output: 0x04, expected: 0x05
# PASS: index:          19, actual output: 0x05, expected: 0x05
# PASS: index:          19, actual output: 0x05, expected: 0x05
# PASS: index:          19, actual output: 0x05, expected: 0x05
# PASS: index:          19, actual output: 0x05, expected: 0x05
# PASS: index:          20, actual output: 0x05, expected: 0x05
# PASS: index:          20, actual output: 0x05, expected: 0x05
# PASS: index:          20, actual output: 0x05, expected: 0x05
# PASS: index:          20, actual output: 0x05, expected: 0x05
# PASS: index:          20, actual output: 0x05, expected: 0x05
# PASS: index:          21, actual output: 0x05, expected: 0x06
# PASS: index:          21, actual output: 0x06, expected: 0x06
# PASS: index:          21, actual output: 0x06, expected: 0x06
# PASS: index:          21, actual output: 0x06, expected: 0x06
# PASS: index:          21, actual output: 0x06, expected: 0x06
# PASS: index:          22, actual output: 0x06, expected: 0x06
# PASS: index:          22, actual output: 0x06, expected: 0x06
# PASS: index:          22, actual output: 0x06, expected: 0x06
# PASS: index:          22, actual output: 0x06, expected: 0x06
# PASS: index:          22, actual output: 0x06, expected: 0x06
# PASS: index:          23, actual output: 0x06, expected: 0x06
# PASS: index:          23, actual output: 0x06, expected: 0x06
# PASS: index:          23, actual output: 0x06, expected: 0x06
# PASS: index:          23, actual output: 0x06, expected: 0x06
# PASS: index:          23, actual output: 0x06, expected: 0x06
# PASS: index:          24, actual output: 0x06, expected: 0x07
# PASS: index:          24, actual output: 0x07, expected: 0x07
# PASS: index:          24, actual output: 0x07, expected: 0x07
# PASS: index:          24, actual output: 0x07, expected: 0x07
# PASS: index:          24, actual output: 0x07, expected: 0x07
# PASS: index:          25, actual output: 0x07, expected: 0x07
# PASS: index:          25, actual output: 0x07, expected: 0x07
# PASS: index:          25, actual output: 0x07, expected: 0x07
# PASS: index:          25, actual output: 0x07, expected: 0x07
# PASS: index:          25, actual output: 0x07, expected: 0x07
# PASS: index:          26, actual output: 0x07, expected: 0x08
# PASS: index:          26, actual output: 0x08, expected: 0x08
# PASS: index:          26, actual output: 0x08, expected: 0x08
# PASS: index:          26, actual output: 0x08, expected: 0x08
# PASS: index:          26, actual output: 0x08, expected: 0x08
# PASS: index:          27, actual output: 0x08, expected: 0x08
# PASS: index:          27, actual output: 0x08, expected: 0x08
# PASS: index:          27, actual output: 0x08, expected: 0x08
# PASS: index:          27, actual output: 0x08, expected: 0x08
# PASS: index:          27, actual output: 0x08, expected: 0x08
# PASS: index:          28, actual output: 0x08, expected: 0x09
# PASS: index:          28, actual output: 0x09, expected: 0x09
# PASS: index:          28, actual output: 0x09, expected: 0x09
# PASS: index:          28, actual output: 0x09, expected: 0x09
# PASS: index:          28, actual output: 0x09, expected: 0x09
# PASS: index:          29, actual output: 0x09, expected: 0x09
# PASS: index:          29, actual output: 0x09, expected: 0x09
# PASS: index:          29, actual output: 0x09, expected: 0x09
# PASS: index:          29, actual output: 0x09, expected: 0x09
# PASS: index:          29, actual output: 0x09, expected: 0x09
# PASS: index:          30, actual output: 0x09, expected: 0x0a
# PASS: index:          30, actual output: 0x0a, expected: 0x0a
# PASS: index:          30, actual output: 0x0a, expected: 0x0a
# PASS: index:          30, actual output: 0x0a, expected: 0x0a
# PASS: index:          30, actual output: 0x0a, expected: 0x0a
# PASS: index:          31, actual output: 0x0a, expected: 0x0a
# PASS: index:          31, actual output: 0x0a, expected: 0x0a
# PASS: index:          31, actual output: 0x0a, expected: 0x0a
# PASS: index:          31, actual output: 0x0a, expected: 0x0a
# PASS: index:          31, actual output: 0x0a, expected: 0x0a
# PASS: index:          32, actual output: 0x0a, expected: 0x0b
# PASS: index:          32, actual output: 0x0b, expected: 0x0b
# PASS: index:          32, actual output: 0x0b, expected: 0x0b
# PASS: index:          32, actual output: 0x0b, expected: 0x0b
# PASS: index:          32, actual output: 0x0b, expected: 0x0b
# PASS: index:          33, actual output: 0x0b, expected: 0x0b
# PASS: index:          33, actual output: 0x0b, expected: 0x0b
# PASS: index:          33, actual output: 0x0b, expected: 0x0b
# PASS: index:          33, actual output: 0x0b, expected: 0x0b
# PASS: index:          33, actual output: 0x0b, expected: 0x0b
# PASS: index:          34, actual output: 0x0b, expected: 0x0c
# PASS: index:          34, actual output: 0x0c, expected: 0x0c
# PASS: index:          34, actual output: 0x0c, expected: 0x0c
# PASS: index:          34, actual output: 0x0c, expected: 0x0c
# PASS: index:          34, actual output: 0x0c, expected: 0x0c
# PASS: index:          35, actual output: 0x0c, expected: 0x0c
# PASS: index:          35, actual output: 0x0c, expected: 0x0c
# PASS: index:          35, actual output: 0x0c, expected: 0x0c
# PASS: index:          35, actual output: 0x0c, expected: 0x0c
# PASS: index:          35, actual output: 0x0c, expected: 0x0c
# PASS: index:          36, actual output: 0x0c, expected: 0x0d
# PASS: index:          36, actual output: 0x0d, expected: 0x0d
# PASS: index:          36, actual output: 0x0d, expected: 0x0d
# PASS: index:          36, actual output: 0x0d, expected: 0x0d
# PASS: index:          36, actual output: 0x0d, expected: 0x0d
# PASS: index:          37, actual output: 0x0d, expected: 0x0e
# PASS: index:          37, actual output: 0x0e, expected: 0x0e
# PASS: index:          37, actual output: 0x0e, expected: 0x0e
# PASS: index:          37, actual output: 0x0e, expected: 0x0e
# PASS: index:          37, actual output: 0x0e, expected: 0x0e
# PASS: index:          38, actual output: 0x0e, expected: 0x0e
# PASS: index:          38, actual output: 0x0e, expected: 0x0e
# PASS: index:          38, actual output: 0x0e, expected: 0x0e
# PASS: index:          38, actual output: 0x0e, expected: 0x0e
# PASS: index:          38, actual output: 0x0e, expected: 0x0e
# PASS: index:          39, actual output: 0x0e, expected: 0x0f
# PASS: index:          39, actual output: 0x0f, expected: 0x0f
# PASS: index:          39, actual output: 0x0f, expected: 0x0f
# PASS: index:          39, actual output: 0x0f, expected: 0x0f
# PASS: index:          39, actual output: 0x0f, expected: 0x0f
# PASS: index:          40, actual output: 0x0f, expected: 0x0f
# PASS: index:          40, actual output: 0x0f, expected: 0x0f
# PASS: index:          40, actual output: 0x0f, expected: 0x0f
# PASS: index:          40, actual output: 0x0f, expected: 0x0f
# PASS: index:          40, actual output: 0x0f, expected: 0x0f
# PASS: index:          41, actual output: 0x0f, expected: 0x10
# PASS: index:          41, actual output: 0x10, expected: 0x10
# PASS: index:          41, actual output: 0x10, expected: 0x10
# PASS: index:          41, actual output: 0x10, expected: 0x10
# PASS: index:          41, actual output: 0x10, expected: 0x10
# PASS: index:          42, actual output: 0x10, expected: 0x11
# PASS: index:          42, actual output: 0x11, expected: 0x11
# PASS: index:          42, actual output: 0x11, expected: 0x11
# PASS: index:          42, actual output: 0x11, expected: 0x11
# PASS: index:          42, actual output: 0x11, expected: 0x11
# PASS: index:          43, actual output: 0x11, expected: 0x11
# PASS: index:          43, actual output: 0x11, expected: 0x11
# PASS: index:          43, actual output: 0x11, expected: 0x11
# PASS: index:          43, actual output: 0x11, expected: 0x11
# PASS: index:          43, actual output: 0x11, expected: 0x11
# PASS: index:          44, actual output: 0x11, expected: 0x12
# PASS: index:          44, actual output: 0x12, expected: 0x12
# PASS: index:          44, actual output: 0x12, expected: 0x12
# PASS: index:          44, actual output: 0x12, expected: 0x12
# PASS: index:          44, actual output: 0x12, expected: 0x12
# PASS: index:          45, actual output: 0x12, expected: 0x12
# PASS: index:          45, actual output: 0x12, expected: 0x12
# PASS: index:          45, actual output: 0x12, expected: 0x12
# PASS: index:          45, actual output: 0x12, expected: 0x12
# PASS: index:          45, actual output: 0x12, expected: 0x12
# PASS: index:          46, actual output: 0x12, expected: 0x13
# PASS: index:          46, actual output: 0x13, expected: 0x13
# PASS: index:          46, actual output: 0x13, expected: 0x13
# PASS: index:          46, actual output: 0x13, expected: 0x13
# PASS: index:          46, actual output: 0x13, expected: 0x13
# PASS: index:          47, actual output: 0x13, expected: 0x14
# PASS: index:          47, actual output: 0x14, expected: 0x14
# PASS: index:          47, actual output: 0x14, expected: 0x14
# PASS: index:          47, actual output: 0x14, expected: 0x14
# PASS: index:          47, actual output: 0x14, expected: 0x14
# PASS: index:          48, actual output: 0x14, expected: 0x14
# PASS: index:          48, actual output: 0x14, expected: 0x14
# PASS: index:          48, actual output: 0x14, expected: 0x14
# PASS: index:          48, actual output: 0x14, expected: 0x14
# PASS: index:          48, actual output: 0x14, expected: 0x14
# PASS: index:          49, actual output: 0x14, expected: 0x15
# PASS: index:          49, actual output: 0x15, expected: 0x15
# PASS: index:          49, actual output: 0x15, expected: 0x15
# PASS: index:          49, actual output: 0x15, expected: 0x15
# PASS: index:          49, actual output: 0x15, expected: 0x15
# PASS: index:          50, actual output: 0x15, expected: 0x16
# PASS: index:          50, actual output: 0x16, expected: 0x16
# PASS: index:          50, actual output: 0x16, expected: 0x16
# PASS: index:          50, actual output: 0x16, expected: 0x16
# PASS: index:          50, actual output: 0x16, expected: 0x16
# PASS: index:          51, actual output: 0x16, expected: 0x16
# PASS: index:          51, actual output: 0x16, expected: 0x16
# PASS: index:          51, actual output: 0x16, expected: 0x16
# PASS: index:          51, actual output: 0x16, expected: 0x16
# PASS: index:          51, actual output: 0x16, expected: 0x16
# PASS: index:          52, actual output: 0x16, expected: 0x17
# PASS: index:          52, actual output: 0x17, expected: 0x17
# PASS: index:          52, actual output: 0x17, expected: 0x17
# PASS: index:          52, actual output: 0x17, expected: 0x17
# PASS: index:          52, actual output: 0x17, expected: 0x17
# PASS: index:          53, actual output: 0x17, expected: 0x18
# PASS: index:          53, actual output: 0x18, expected: 0x18
# PASS: index:          53, actual output: 0x18, expected: 0x18
# PASS: index:          53, actual output: 0x18, expected: 0x18
# PASS: index:          53, actual output: 0x18, expected: 0x18
# PASS: index:          54, actual output: 0x18, expected: 0x18
# PASS: index:          54, actual output: 0x18, expected: 0x18
# PASS: index:          54, actual output: 0x18, expected: 0x18
# PASS: index:          54, actual output: 0x18, expected: 0x18
# PASS: index:          54, actual output: 0x18, expected: 0x18
# PASS: index:          55, actual output: 0x18, expected: 0x19
# PASS: index:          55, actual output: 0x19, expected: 0x19
# PASS: index:          55, actual output: 0x19, expected: 0x19
# PASS: index:          55, actual output: 0x19, expected: 0x19
# PASS: index:          55, actual output: 0x19, expected: 0x19
# PASS: index:          56, actual output: 0x19, expected: 0x1a
# PASS: index:          56, actual output: 0x1a, expected: 0x1a
# PASS: index:          56, actual output: 0x1a, expected: 0x1a
# PASS: index:          56, actual output: 0x1a, expected: 0x1a
# PASS: index:          56, actual output: 0x1a, expected: 0x1a
# PASS: index:          57, actual output: 0x1a, expected: 0x1a
# PASS: index:          57, actual output: 0x1a, expected: 0x1a
# PASS: index:          57, actual output: 0x1a, expected: 0x1a
# PASS: index:          57, actual output: 0x1a, expected: 0x1a
# PASS: index:          57, actual output: 0x1a, expected: 0x1a
# PASS: index:          58, actual output: 0x1a, expected: 0x1b
# PASS: index:          58, actual output: 0x1b, expected: 0x1b
# PASS: index:          58, actual output: 0x1b, expected: 0x1b
# PASS: index:          58, actual output: 0x1b, expected: 0x1b
# PASS: index:          58, actual output: 0x1b, expected: 0x1b
# PASS: index:          59, actual output: 0x1b, expected: 0x1c
# PASS: index:          59, actual output: 0x1c, expected: 0x1c
# PASS: index:          59, actual output: 0x1c, expected: 0x1c
# PASS: index:          59, actual output: 0x1c, expected: 0x1c
# PASS: index:          59, actual output: 0x1c, expected: 0x1c
# PASS: index:          60, actual output: 0x1c, expected: 0x1d
# PASS: index:          60, actual output: 0x1d, expected: 0x1d
# PASS: index:          60, actual output: 0x1d, expected: 0x1d
# PASS: index:          60, actual output: 0x1d, expected: 0x1d
# PASS: index:          60, actual output: 0x1d, expected: 0x1d
# PASS: index:          61, actual output: 0x1d, expected: 0x1d
# PASS: index:          61, actual output: 0x1d, expected: 0x1d
# PASS: index:          61, actual output: 0x1d, expected: 0x1d
# PASS: index:          61, actual output: 0x1d, expected: 0x1d
# PASS: index:          61, actual output: 0x1d, expected: 0x1d
# PASS: index:          62, actual output: 0x1d, expected: 0x1e
# PASS: index:          62, actual output: 0x1e, expected: 0x1e
# PASS: index:          62, actual output: 0x1e, expected: 0x1e
# PASS: index:          62, actual output: 0x1e, expected: 0x1e
# PASS: index:          62, actual output: 0x1e, expected: 0x1e
# PASS: index:          63, actual output: 0x1e, expected: 0x1f
# PASS: index:          63, actual output: 0x1f, expected: 0x1f
# PASS: index:          63, actual output: 0x1f, expected: 0x1f
# PASS: index:          63, actual output: 0x1f, expected: 0x1f
# PASS: index:          63, actual output: 0x1f, expected: 0x1f
# PASS: index:          64, actual output: 0x1f, expected: 0x20
# PASS: index:          64, actual output: 0x20, expected: 0x20
# PASS: index:          64, actual output: 0x20, expected: 0x20
# PASS: index:          64, actual output: 0x20, expected: 0x20
# PASS: index:          64, actual output: 0x20, expected: 0x20
# PASS: index:          65, actual output: 0x20, expected: 0x20
# PASS: index:          65, actual output: 0x20, expected: 0x20
# PASS: index:          65, actual output: 0x20, expected: 0x20
# PASS: index:          65, actual output: 0x20, expected: 0x20
# PASS: index:          65, actual output: 0x20, expected: 0x20
# PASS: index:          66, actual output: 0x20, expected: 0x21
# PASS: index:          66, actual output: 0x21, expected: 0x21
# PASS: index:          66, actual output: 0x21, expected: 0x21
# PASS: index:          66, actual output: 0x21, expected: 0x21
# PASS: index:          66, actual output: 0x21, expected: 0x21
# PASS: index:          67, actual output: 0x21, expected: 0x22
# PASS: index:          67, actual output: 0x22, expected: 0x22
# PASS: index:          67, actual output: 0x22, expected: 0x22
# PASS: index:          67, actual output: 0x22, expected: 0x22
# PASS: index:          67, actual output: 0x22, expected: 0x22
# PASS: index:          68, actual output: 0x22, expected: 0x23
# PASS: index:          68, actual output: 0x23, expected: 0x23
# PASS: index:          68, actual output: 0x23, expected: 0x23
# PASS: index:          68, actual output: 0x23, expected: 0x23
# PASS: index:          68, actual output: 0x23, expected: 0x23
# PASS: index:          69, actual output: 0x23, expected: 0x23
# PASS: index:          69, actual output: 0x23, expected: 0x23
# PASS: index:          69, actual output: 0x23, expected: 0x23
# PASS: index:          69, actual output: 0x23, expected: 0x23
# PASS: index:          69, actual output: 0x23, expected: 0x23
# PASS: index:          70, actual output: 0x23, expected: 0x24
# PASS: index:          70, actual output: 0x24, expected: 0x24
# PASS: index:          70, actual output: 0x24, expected: 0x24
# PASS: index:          70, actual output: 0x24, expected: 0x24
# PASS: index:          70, actual output: 0x24, expected: 0x24
# PASS: index:          71, actual output: 0x24, expected: 0x25
# PASS: index:          71, actual output: 0x25, expected: 0x25
# PASS: index:          71, actual output: 0x25, expected: 0x25
# PASS: index:          71, actual output: 0x25, expected: 0x25
# PASS: index:          71, actual output: 0x25, expected: 0x25
# PASS: index:          72, actual output: 0x25, expected: 0x26
# PASS: index:          72, actual output: 0x26, expected: 0x26
# PASS: index:          72, actual output: 0x26, expected: 0x26
# PASS: index:          72, actual output: 0x26, expected: 0x26
# PASS: index:          72, actual output: 0x26, expected: 0x26
# PASS: index:          73, actual output: 0x26, expected: 0x27
# PASS: index:          73, actual output: 0x27, expected: 0x27
# PASS: index:          73, actual output: 0x27, expected: 0x27
# PASS: index:          73, actual output: 0x27, expected: 0x27
# PASS: index:          73, actual output: 0x27, expected: 0x27
# PASS: index:          74, actual output: 0x27, expected: 0x27
# PASS: index:          74, actual output: 0x27, expected: 0x27
# PASS: index:          74, actual output: 0x27, expected: 0x27
# PASS: index:          74, actual output: 0x27, expected: 0x27
# PASS: index:          74, actual output: 0x27, expected: 0x27
# PASS: index:          75, actual output: 0x27, expected: 0x28
# PASS: index:          75, actual output: 0x28, expected: 0x28
# PASS: index:          75, actual output: 0x28, expected: 0x28
# PASS: index:          75, actual output: 0x28, expected: 0x28
# PASS: index:          75, actual output: 0x28, expected: 0x28
# PASS: index:          76, actual output: 0x28, expected: 0x29
# PASS: index:          76, actual output: 0x29, expected: 0x29
# PASS: index:          76, actual output: 0x29, expected: 0x29
# PASS: index:          76, actual output: 0x29, expected: 0x29
# PASS: index:          76, actual output: 0x29, expected: 0x29
# PASS: index:          77, actual output: 0x29, expected: 0x2a
# PASS: index:          77, actual output: 0x2a, expected: 0x2a
# PASS: index:          77, actual output: 0x2a, expected: 0x2a
# PASS: index:          77, actual output: 0x2a, expected: 0x2a
# PASS: index:          77, actual output: 0x2a, expected: 0x2a
# PASS: index:          78, actual output: 0x2a, expected: 0x2b
# PASS: index:          78, actual output: 0x2b, expected: 0x2b
# PASS: index:          78, actual output: 0x2b, expected: 0x2b
# PASS: index:          78, actual output: 0x2b, expected: 0x2b
# PASS: index:          78, actual output: 0x2b, expected: 0x2b
# PASS: index:          79, actual output: 0x2b, expected: 0x2b
# PASS: index:          79, actual output: 0x2b, expected: 0x2b
# PASS: index:          79, actual output: 0x2b, expected: 0x2b
# PASS: index:          79, actual output: 0x2b, expected: 0x2b
# PASS: index:          79, actual output: 0x2b, expected: 0x2b
# PASS: index:          80, actual output: 0x2b, expected: 0x2c
# PASS: index:          80, actual output: 0x2c, expected: 0x2c
# PASS: index:          80, actual output: 0x2c, expected: 0x2c
# PASS: index:          80, actual output: 0x2c, expected: 0x2c
# PASS: index:          80, actual output: 0x2c, expected: 0x2c
# PASS: index:          81, actual output: 0x2c, expected: 0x2d
# PASS: index:          81, actual output: 0x2d, expected: 0x2d
# PASS: index:          81, actual output: 0x2d, expected: 0x2d
# PASS: index:          81, actual output: 0x2d, expected: 0x2d
# PASS: index:          81, actual output: 0x2d, expected: 0x2d
# PASS: index:          82, actual output: 0x2d, expected: 0x2e
# PASS: index:          82, actual output: 0x2e, expected: 0x2e
# PASS: index:          82, actual output: 0x2e, expected: 0x2e
# PASS: index:          82, actual output: 0x2e, expected: 0x2e
# PASS: index:          82, actual output: 0x2e, expected: 0x2e
# PASS: index:          83, actual output: 0x2e, expected: 0x2f
# PASS: index:          83, actual output: 0x2f, expected: 0x2f
# PASS: index:          83, actual output: 0x2f, expected: 0x2f
# PASS: index:          83, actual output: 0x2f, expected: 0x2f
# PASS: index:          83, actual output: 0x2f, expected: 0x2f
# PASS: index:          84, actual output: 0x2f, expected: 0x30
# PASS: index:          84, actual output: 0x30, expected: 0x30
# PASS: index:          84, actual output: 0x30, expected: 0x30
# PASS: index:          84, actual output: 0x30, expected: 0x30
# PASS: index:          84, actual output: 0x30, expected: 0x30
# PASS: index:          85, actual output: 0x30, expected: 0x31
# PASS: index:          85, actual output: 0x31, expected: 0x31
# PASS: index:          85, actual output: 0x31, expected: 0x31
# PASS: index:          85, actual output: 0x31, expected: 0x31
# PASS: index:          85, actual output: 0x31, expected: 0x31
# PASS: index:          86, actual output: 0x31, expected: 0x31
# PASS: index:          86, actual output: 0x31, expected: 0x31
# PASS: index:          86, actual output: 0x31, expected: 0x31
# PASS: index:          86, actual output: 0x31, expected: 0x31
# PASS: index:          86, actual output: 0x31, expected: 0x31
# PASS: index:          87, actual output: 0x31, expected: 0x32
# PASS: index:          87, actual output: 0x32, expected: 0x32
# PASS: index:          87, actual output: 0x32, expected: 0x32
# PASS: index:          87, actual output: 0x32, expected: 0x32
# PASS: index:          87, actual output: 0x32, expected: 0x32
# PASS: index:          88, actual output: 0x32, expected: 0x33
# PASS: index:          88, actual output: 0x33, expected: 0x33
# PASS: index:          88, actual output: 0x33, expected: 0x33
# PASS: index:          88, actual output: 0x33, expected: 0x33
# PASS: index:          88, actual output: 0x33, expected: 0x33
# PASS: index:          89, actual output: 0x33, expected: 0x34
# PASS: index:          89, actual output: 0x34, expected: 0x34
# PASS: index:          89, actual output: 0x34, expected: 0x34
# PASS: index:          89, actual output: 0x34, expected: 0x34
# PASS: index:          89, actual output: 0x34, expected: 0x34
# PASS: index:          90, actual output: 0x34, expected: 0x35
# PASS: index:          90, actual output: 0x35, expected: 0x35
# PASS: index:          90, actual output: 0x35, expected: 0x35
# PASS: index:          90, actual output: 0x35, expected: 0x35
# PASS: index:          90, actual output: 0x35, expected: 0x35
# PASS: index:          91, actual output: 0x35, expected: 0x36
# PASS: index:          91, actual output: 0x36, expected: 0x36
# PASS: index:          91, actual output: 0x36, expected: 0x36
# PASS: index:          91, actual output: 0x36, expected: 0x36
# PASS: index:          91, actual output: 0x36, expected: 0x36
# PASS: index:          92, actual output: 0x36, expected: 0x37
# PASS: index:          92, actual output: 0x37, expected: 0x37
# PASS: index:          92, actual output: 0x37, expected: 0x37
# PASS: index:          92, actual output: 0x37, expected: 0x37
# PASS: index:          92, actual output: 0x37, expected: 0x37
# PASS: index:          93, actual output: 0x37, expected: 0x38
# PASS: index:          93, actual output: 0x38, expected: 0x38
# PASS: index:          93, actual output: 0x38, expected: 0x38
# PASS: index:          93, actual output: 0x38, expected: 0x38
# PASS: index:          93, actual output: 0x38, expected: 0x38
# PASS: index:          94, actual output: 0x38, expected: 0x39
# PASS: index:          94, actual output: 0x39, expected: 0x39
# PASS: index:          94, actual output: 0x39, expected: 0x39
# PASS: index:          94, actual output: 0x39, expected: 0x39
# PASS: index:          94, actual output: 0x39, expected: 0x39
# PASS: index:          95, actual output: 0x39, expected: 0x39
# PASS: index:          95, actual output: 0x39, expected: 0x39
# PASS: index:          95, actual output: 0x39, expected: 0x39
# PASS: index:          95, actual output: 0x39, expected: 0x39
# PASS: index:          95, actual output: 0x39, expected: 0x39
# PASS: index:          96, actual output: 0x39, expected: 0x3a
# PASS: index:          96, actual output: 0x3a, expected: 0x3a
# PASS: index:          96, actual output: 0x3a, expected: 0x3a
# PASS: index:          96, actual output: 0x3a, expected: 0x3a
# PASS: index:          96, actual output: 0x3a, expected: 0x3a
# PASS: index:          97, actual output: 0x3a, expected: 0x3b
# PASS: index:          97, actual output: 0x3b, expected: 0x3b
# PASS: index:          97, actual output: 0x3b, expected: 0x3b
# PASS: index:          97, actual output: 0x3b, expected: 0x3b
# PASS: index:          97, actual output: 0x3b, expected: 0x3b
# PASS: index:          98, actual output: 0x3b, expected: 0x3c
# PASS: index:          98, actual output: 0x3c, expected: 0x3c
# PASS: index:          98, actual output: 0x3c, expected: 0x3c
# PASS: index:          98, actual output: 0x3c, expected: 0x3c
# PASS: index:          98, actual output: 0x3c, expected: 0x3c
# PASS: index:          99, actual output: 0x3c, expected: 0x3d
# PASS: index:          99, actual output: 0x3d, expected: 0x3d
# PASS: index:          99, actual output: 0x3d, expected: 0x3d
# PASS: index:          99, actual output: 0x3d, expected: 0x3d
# PASS: index:          99, actual output: 0x3d, expected: 0x3d
# PASS: index:         100, actual output: 0x3d, expected: 0x3e
# PASS: index:         100, actual output: 0x3e, expected: 0x3e
# PASS: index:         100, actual output: 0x3e, expected: 0x3e
